[lk]
img_ver = 0
img_group = 0

[logo]
img_ver = 0
img_group = 1

[boot]
img_ver = 0
img_group = 1

[recovery]
img_ver = 0
img_group = 1

[dtbo]
img_ver = 0
img_group = 1

[atf]
img_ver = 0
img_group = 0

[tee]
img_ver = 0
img_group = 0

[md1arm7]
img_ver = 0
img_group = 1

[md1dsp]
img_ver = 0
img_group = 1

[md1rom]
img_ver = 0
img_group = 1

[md3rom]
img_ver = 0
img_group = 1

[lk_main_dtb]
img_ver = 0
img_group = 1
